<?xml version="1.0" encoding="UTF-8" standalone="no"?>
<!-- Created with Inkscape (http://www.inkscape.org/) -->

<svg
   version="1.1"
   id="svg2"
   xml:space="preserve"
   width="1200"
   height="1200"
   viewBox="0 0 1200 1200"
   sodipodi:docname="icon2.svg"
   inkscape:version="1.1.1 (3bf5ae0d25, 2021-09-20)"
   xmlns:inkscape="http://www.inkscape.org/namespaces/inkscape"
   xmlns:sodipodi="http://sodipodi.sourceforge.net/DTD/sodipodi-0.dtd"
   xmlns="http://www.w3.org/2000/svg"
   xmlns:svg="http://www.w3.org/2000/svg"><defs
     id="defs6"><clipPath
       clipPathUnits="userSpaceOnUse"
       id="clipPath18"><path
         d="M 0,900 H 900 V 0 H 0 Z"
         id="path16" /></clipPath><clipPath
       clipPathUnits="userSpaceOnUse"
       id="clipPath30"><path
         d="M 0,900 H 900 V 0 H 0 Z"
         id="path28" /></clipPath><clipPath
       clipPathUnits="userSpaceOnUse"
       id="clipPath82"><path
         d="M 0,900 H 900 V 0 H 0 Z"
         id="path80" /></clipPath><clipPath
       clipPathUnits="userSpaceOnUse"
       id="clipPath90"><path
         d="m 339.149,560.565 h 221.12 V 339.444 h -221.12 z"
         id="path88" /></clipPath><clipPath
       clipPathUnits="userSpaceOnUse"
       id="clipPath150"><path
         d="M 0,900 H 900 V 0 H 0 Z"
         id="path148" /></clipPath><clipPath
       clipPathUnits="userSpaceOnUse"
       id="clipPath158"><path
         d="M -2.43466,900.434 H 899.768 V -1.76776 H -2.43466 Z"
         id="path156" /></clipPath><clipPath
       clipPathUnits="userSpaceOnUse"
       id="clipPath162"><path
         d="M -0.702255,898.702 H 898.036 V -0.0353546 H -0.702255 Z"
         id="path160" /></clipPath><clipPath
       clipPathUnits="userSpaceOnUse"
       id="clipPath166"><path
         d="M -0.702255,898.702 H 898.036 V -0.0353546 H -0.702255 Z"
         id="path164" /></clipPath><clipPath
       clipPathUnits="userSpaceOnUse"
       id="clipPath210"><path
         d="M 232.321,665.679 H 665.012 V 232.988 H 232.321 Z"
         id="path208" /></clipPath><clipPath
       clipPathUnits="userSpaceOnUse"
       id="clipPath226"><path
         d="M 298.888,599.111 H 598.444 V 299.555 H 298.888 Z"
         id="path224" /></clipPath><clipPath
       clipPathUnits="userSpaceOnUse"
       id="clipPath242"><path
         d="M 229.821,601.611 H 667.512 V 297.055 H 229.821 Z"
         id="path240" /></clipPath><clipPath
       clipPathUnits="userSpaceOnUse"
       id="clipPath258"><path
         d="M 296.388,668.179 H 600.944 V 230.488 H 296.388 Z"
         id="path256" /></clipPath><clipPath
       clipPathUnits="userSpaceOnUse"
       id="clipPath274"><path
         d="M 263.104,634.895 H 634.228 V 263.772 H 263.104 Z"
         id="path272" /></clipPath><clipPath
       clipPathUnits="userSpaceOnUse"
       id="clipPath290"><path
         d="M 149.111,748.889 H 748.222 V 149.778 H 149.111 Z"
         id="path288" /></clipPath></defs><sodipodi:namedview
     id="namedview4"
     pagecolor="#505050"
     bordercolor="#eeeeee"
     borderopacity="1"
     inkscape:pageshadow="0"
     inkscape:pageopacity="0"
     inkscape:pagecheckerboard="0"
     showgrid="false"
     inkscape:zoom="0.59916667"
     inkscape:cx="599.16551"
     inkscape:cy="600"
     inkscape:window-width="2560"
     inkscape:window-height="1369"
     inkscape:window-x="2552"
     inkscape:window-y="-8"
     inkscape:window-maximized="1"
     inkscape:current-layer="g8" /><g
     inkscape:groupmode="layer"
     id="layer1"
     inkscape:label="Backgrounds"><path
       d="M 0,0 H 900 V 900 H 0 Z"
       style="display:none;fill:#ffa726;fill-opacity:1;fill-rule:nonzero;stroke:none"
       id="path10"
       inkscape:label="bg-android"
       transform="matrix(1.3333333,0,0,-1.3333333,0,1200)" /><path
       d="m 0,0 h -323.111 c -75.479,0 -136.667,61.188 -136.667,136.666 v 323.111 c 0,75.479 61.188,136.667 136.667,136.667 H 0 c 75.479,0 136.666,-61.188 136.666,-136.667 V 136.666 C 136.666,61.188 75.479,0 0,0"
       style="display:inline;fill:#ffa726;fill-opacity:1;fill-rule:nonzero;stroke:none"
       id="path22"
       transform="matrix(1.3333333,0,0,-1.3333333,815.40758,997.62894)"
       inkscape:label="bg-ios" /></g><g
     id="g8"
     inkscape:groupmode="layer"
     inkscape:label="icon"
     transform="matrix(1.3333333,0,0,-1.3333333,0,1200)"><path
       d="m 0,0 h -144.284 c -4.016,0 -7.272,3.256 -7.272,7.271 v 353.907 c 0,4.016 3.256,7.272 7.272,7.272 h 115.88"
       style="display:inline;fill:none;stroke:#303030;stroke-width:15;stroke-linecap:butt;stroke-linejoin:miter;stroke-miterlimit:10;stroke-dasharray:none;stroke-opacity:1"
       id="path74"
       transform="translate(426.5557,263.6836)" /><path
       d="m 0,0 c 0,-6.827 -5.534,-12.361 -12.361,-12.361 -6.827,0 -12.361,5.534 -12.361,12.361 0,6.826 5.534,12.36 12.361,12.36 C -5.534,12.36 0,8.269 0,0 Z"
       style="display:inline;fill:none;stroke:#303030;stroke-width:10;stroke-linecap:butt;stroke-linejoin:miter;stroke-miterlimit:10;stroke-dasharray:none;stroke-opacity:1"
       id="path70"
       transform="translate(401.6826,303.1191)" /><path
       d="m 0,0 180.389,17.802 c 8.118,0.801 15.348,-5.131 16.15,-13.249 l 6.165,-62.472 c 0.801,-8.118 -5.131,-15.349 -13.249,-16.15 L 86.51,-83.823"
       style="display:inline;fill:none;stroke:#303030;stroke-width:15;stroke-linecap:butt;stroke-linejoin:miter;stroke-miterlimit:10;stroke-dasharray:none;stroke-opacity:1"
       id="path34"
       transform="translate(422.2236,545.4873)" /><path
       d="m 0,0 h 82.47 c 6.798,0 12.308,-5.511 12.308,-12.309 v -157.553 c 0,-6.798 -5.51,-12.309 -12.308,-12.309 H -78.776"
       style="display:inline;fill:none;stroke:#303030;stroke-width:15;stroke-linecap:butt;stroke-linejoin:miter;stroke-miterlimit:10;stroke-dasharray:none;stroke-opacity:1"
       id="path38"
       transform="translate(512.8359,445.8545)" /><path
       d="M 0,0 C -7.869,38.905 -36.883,78.642 -63.466,77.797"
       style="display:inline;fill:none;stroke:#303030;stroke-width:15;stroke-linecap:butt;stroke-linejoin:miter;stroke-miterlimit:10;stroke-dasharray:none;stroke-opacity:1"
       id="path42"
       transform="translate(461.001,554.3159)" /><path
       d="M 0,0 C 0,36.381 36.399,91.367 68.611,89.622 81.919,88.901 102.266,89.388 113.418,74.254 125.905,57.31 123.16,23.999 103.487,3.597"
       style="display:inline;fill:none;stroke:#303030;stroke-width:15;stroke-linecap:butt;stroke-linejoin:miter;stroke-miterlimit:10;stroke-dasharray:none;stroke-opacity:1"
       id="path46"
       transform="translate(476.8857,554.8037)" /><path
       d="M 0,0 V -195.437"
       style="display:inline;fill:none;stroke:#303030;stroke-width:15;stroke-linecap:butt;stroke-linejoin:miter;stroke-miterlimit:10;stroke-dasharray:none;stroke-opacity:1"
       id="path50"
       transform="translate(433.8999,451.667)" /><path
       d="M 0,0 -11.836,104.434"
       style="display:inline;fill:none;stroke:#303030;stroke-width:15;stroke-linecap:butt;stroke-linejoin:miter;stroke-miterlimit:10;stroke-dasharray:none;stroke-opacity:1"
       id="path54"
       transform="translate(434.0596,450.2603)" /><path
       d="M 0,0 11.836,-95.227 V -291.12"
       style="display:inline;fill:none;stroke:#303030;stroke-width:15;stroke-linecap:butt;stroke-linejoin:miter;stroke-miterlimit:10;stroke-dasharray:none;stroke-opacity:1"
       id="path58"
       transform="translate(502.918,554.8037)" /><path
       d="M 0,0 C 1.586,21.629 22.019,51.292 35.235,53.678 41.858,54.873 52.248,53.196 58.038,43.903 64.521,33.498 54.021,12.178 44.282,0"
       style="display:inline;fill:none;stroke:#303030;stroke-width:15;stroke-linecap:butt;stroke-linejoin:miter;stroke-miterlimit:10;stroke-dasharray:none;stroke-opacity:1"
       id="path62"
       transform="translate(508.0518,559.6187)" /><path
       d="m 0,0 h -104.335 c -3.344,0 -6.055,2.815 -6.055,6.288 v 231.195 c 0,3.473 2.711,6.288 6.055,6.288 2.271,1.333 78.714,0.66 78.714,0.66 22.089,-8.576 22.905,-42.3 23.191,-44.491"
       style="display:inline;fill:none;stroke:#303030;stroke-width:15;stroke-linecap:butt;stroke-linejoin:miter;stroke-miterlimit:10;stroke-dasharray:none;stroke-opacity:1"
       id="path66"
       transform="translate(426.5557,340.8828)" /></g><g
     inkscape:groupmode="layer"
     id="layer2"
     inkscape:label="Grids"
     style="display:none"><g
       id="g76"
       inkscape:label="ios-grid"><g
         id="g78"
         clip-path="url(#clipPath82)"><g
           id="g84"><g
             id="g86" /><g
             id="g98"><g
               clip-path="url(#clipPath90)"
               opacity="0.101959"
               id="g96"><g
                 transform="translate(449.709,560.5649)"
                 id="g94"><path
                   d="m 0,0 c -61.061,0 -110.561,-49.5 -110.561,-110.56 0,-61.061 49.5,-110.561 110.561,-110.561 61.061,0 110.561,49.5 110.561,110.561 C 110.561,-49.5 61.061,0 0,0"
                   style="fill:#000000;fill-opacity:1;fill-rule:nonzero;stroke:none"
                   id="path92" /></g></g></g></g><g
           id="g100"
           transform="translate(613.8037,747.936)"><path
             d="m 0,0 h -328.189 c -73.916,0 -133.837,-59.921 -133.837,-133.836 v -328.19 c 0,-73.916 59.921,-133.837 133.837,-133.837 H 0 c 73.916,0 133.837,59.921 133.837,133.837 v 328.19 C 133.837,-59.921 73.916,0 0,0 m 0,-1 c 35.482,0 68.84,-13.817 93.93,-38.907 25.089,-25.09 38.907,-58.447 38.907,-93.929 v -328.19 c 0,-35.482 -13.818,-68.84 -38.907,-93.93 C 68.84,-581.045 35.482,-594.863 0,-594.863 h -328.189 c -35.482,0 -68.84,13.818 -93.93,38.907 -25.089,25.09 -38.907,58.448 -38.907,93.93 v 328.19 c 0,35.482 13.818,68.839 38.907,93.929 25.09,25.09 58.448,38.907 93.93,38.907 L 0,-1"
             style="fill:#95979a;fill-opacity:1;fill-rule:nonzero;stroke:none"
             id="path102" /></g><path
           d="M 747.64,560.565 H 152.36 v -0.582 h 595.28 z"
           style="fill:#95979a;fill-opacity:1;fill-rule:nonzero;stroke:none"
           id="path104" /><path
           d="M 747.64,708.949 H 152.36 v -0.582 h 595.28 z"
           style="fill:#95979a;fill-opacity:1;fill-rule:nonzero;stroke:none"
           id="path106" /><path
           d="M 747.64,191.643 H 152.36 v -0.582 h 595.28 z"
           style="fill:#95979a;fill-opacity:1;fill-rule:nonzero;stroke:none"
           id="path108" /><path
           d="m 708.653,747.936 h -0.582 V 152.073 h 0.582 z"
           style="fill:#95979a;fill-opacity:1;fill-rule:nonzero;stroke:none"
           id="path110" /><path
           d="m 191.347,747.936 h -0.582 V 152.073 h 0.582 z"
           style="fill:#95979a;fill-opacity:1;fill-rule:nonzero;stroke:none"
           id="path112" /><path
           d="M 747.64,450.005 H 152.36 v -0.582 h 595.28 z"
           style="fill:#95979a;fill-opacity:1;fill-rule:nonzero;stroke:none"
           id="path114" /><path
           d="M 747.64,340.026 H 152.36 v -0.582 h 595.28 z"
           style="fill:#95979a;fill-opacity:1;fill-rule:nonzero;stroke:none"
           id="path116" /><path
           d="m 560.27,747.354 h -0.582 V 152.073 h 0.582 z"
           style="fill:#95979a;fill-opacity:1;fill-rule:nonzero;stroke:none"
           id="path118" /><path
           d="m 450.291,747.354 h -0.582 V 152.073 h 0.582 z"
           style="fill:#95979a;fill-opacity:1;fill-rule:nonzero;stroke:none"
           id="path120" /><path
           d="m 339.73,747.354 h -0.582 V 152.073 h 0.582 z"
           style="fill:#95979a;fill-opacity:1;fill-rule:nonzero;stroke:none"
           id="path122" /><g
           id="g124"
           transform="translate(152.252,748.1641)"><path
             d="m 0,0 -0.411,-0.412 595.907,-595.906 0.411,0.411 z"
             style="fill:#95979a;fill-opacity:1;fill-rule:nonzero;stroke:none"
             id="path126" /></g><g
           id="g128"
           transform="translate(747.6406,747.7656)"><path
             d="m 0,0 -595.692,-595.692 h 0.823 L 0,-0.823 Z"
             style="fill:#95979a;fill-opacity:1;fill-rule:nonzero;stroke:none"
             id="path130" /></g><g
           id="g132"
           transform="translate(449.709,560.5649)"><path
             d="m 0,0 c -61.061,0 -110.561,-49.5 -110.561,-110.56 0,-61.061 49.5,-110.561 110.561,-110.561 61.061,0 110.561,49.5 110.561,110.561 C 110.561,-49.5 61.061,0 0,0 m 0,-1 c 29.265,0 56.777,-11.396 77.471,-32.089 20.693,-20.694 32.09,-48.206 32.09,-77.471 0,-29.265 -11.397,-56.777 -32.09,-77.471 -20.694,-20.693 -48.206,-32.09 -77.471,-32.09 -29.265,0 -56.777,11.397 -77.471,32.09 -20.693,20.694 -32.09,48.206 -32.09,77.471 0,29.265 11.397,56.777 32.09,77.471 C -56.777,-12.396 -29.265,-1 0,-1"
             style="fill:#95979a;fill-opacity:1;fill-rule:nonzero;stroke:none"
             id="path134" /></g><g
           id="g136"
           transform="translate(449.709,607.1167)"><path
             d="m 0,0 c -86.771,0 -157.112,-70.341 -157.112,-157.112 0,-86.77 70.341,-157.112 157.112,-157.112 86.771,0 157.112,70.342 157.112,157.112 C 157.112,-70.341 86.771,0 0,0 m 0,-1 c 41.699,0 80.902,-16.238 110.388,-45.724 29.486,-29.486 45.724,-68.689 45.724,-110.388 0,-41.699 -16.238,-80.902 -45.724,-110.388 C 80.902,-296.986 41.699,-313.224 0,-313.224 c -41.699,0 -80.902,16.238 -110.388,45.724 -29.486,29.486 -45.724,68.689 -45.724,110.388 0,41.699 16.238,80.902 45.724,110.388 C -80.902,-17.238 -41.699,-1 0,-1"
             style="fill:#95979a;fill-opacity:1;fill-rule:nonzero;stroke:none"
             id="path138" /></g><g
           id="g140"
           transform="translate(449.709,708.9487)"><path
             d="m 0,0 c -143.011,0 -258.944,-115.933 -258.944,-258.944 0,-143.011 115.933,-258.944 258.944,-258.944 143.011,0 258.944,115.933 258.944,258.944 C 258.944,-115.933 143.011,0 0,0 m 0,-1 c 34.822,0 68.604,-6.82 100.403,-20.27 30.716,-12.992 58.301,-31.591 81.991,-55.28 23.689,-23.69 42.289,-51.275 55.28,-81.991 13.45,-31.8 20.27,-65.581 20.27,-100.403 0,-34.823 -6.82,-68.603 -20.27,-100.403 -12.991,-30.716 -31.591,-58.301 -55.28,-81.99 -23.69,-23.69 -51.275,-42.289 -81.991,-55.281 -31.799,-13.45 -65.581,-20.27 -100.403,-20.27 -34.823,0 -68.603,6.82 -100.403,20.27 -30.716,12.992 -58.302,31.591 -81.991,55.281 -23.689,23.689 -42.288,51.274 -55.28,81.99 -13.45,31.8 -20.27,65.58 -20.27,100.403 0,34.822 6.82,68.603 20.27,100.403 12.992,30.716 31.591,58.301 55.28,81.991 23.689,23.689 51.275,42.288 81.991,55.28 C -68.603,-7.82 -34.823,-1 0,-1"
             style="fill:#95979a;fill-opacity:1;fill-rule:nonzero;stroke:none"
             id="path142" /></g></g></g><g
       id="g144"
       inkscape:label="android-grid"
       transform="matrix(1.3333333,0,0,-1.3333333,0,1200)"><g
         id="g146"
         clip-path="url(#clipPath150)"
         style="display:inline"><g
           id="g152"><g
             id="g154" /><g
             id="g202"><g
               clip-path="url(#clipPath158)"
               opacity="0.100006"
               id="g200"><g
                 id="g178"><g
                   id="g168" /><g
                   id="g176"><g
                     clip-path="url(#clipPath162)"
                     opacity="0.399994"
                     id="g174"><g
                       transform="translate(-0.667,898.6665)"
                       id="g172"><path
                         d="M 0,0 898.667,-898.667"
                         style="fill:none;stroke:#000000;stroke-width:0.1;stroke-linecap:butt;stroke-linejoin:miter;stroke-miterlimit:10;stroke-dasharray:none;stroke-opacity:1"
                         id="path170" /></g></g></g></g><g
                 id="g190"><g
                   id="g180" /><g
                   id="g188"><g
                     clip-path="url(#clipPath166)"
                     opacity="0.100006"
                     id="g186"><g
                       transform="translate(898,898.6665)"
                       id="g184"><path
                         d="M 0,0 -898.667,-898.667"
                         style="fill:none;stroke:#000000;stroke-width:0.1;stroke-linecap:butt;stroke-linejoin:miter;stroke-miterlimit:10;stroke-dasharray:none;stroke-opacity:1"
                         id="path182" /></g></g></g></g><g
                 transform="translate(-0.667,898.6665)"
                 id="g194"><path
                   d="M 0,0 898.667,-898.667"
                   style="fill:none;stroke:#000000;stroke-width:5;stroke-linecap:butt;stroke-linejoin:miter;stroke-miterlimit:10;stroke-dasharray:none;stroke-opacity:1"
                   id="path192" /></g><g
                 transform="translate(898,898.6665)"
                 id="g198"><path
                   d="M 0,0 -898.667,-898.667"
                   style="fill:none;stroke:#000000;stroke-width:5;stroke-linecap:butt;stroke-linejoin:miter;stroke-miterlimit:10;stroke-dasharray:none;stroke-opacity:1"
                   id="path196" /></g></g></g></g><g
           id="g204"><g
             id="g206" /><g
             id="g218"><g
               clip-path="url(#clipPath210)"
               opacity="0.300003"
               id="g216"><g
                 transform="translate(448.6665,665.6792)"
                 id="g214"><path
                   d="m 0,0 c -119.485,0 -216.346,-96.861 -216.346,-216.346 0,-119.485 96.861,-216.346 216.346,-216.346 119.484,0 216.345,96.861 216.345,216.346 C 216.345,-96.861 119.484,0 0,0 m 0,-5 c 28.534,0 56.211,-5.587 82.263,-16.606 25.167,-10.645 47.77,-25.885 67.181,-45.296 19.411,-19.411 34.65,-42.014 45.295,-67.18 11.019,-26.053 16.606,-53.73 16.606,-82.264 0,-28.533 -5.587,-56.211 -16.606,-82.264 -10.645,-25.166 -25.884,-47.768 -45.295,-67.18 -19.411,-19.411 -42.014,-34.651 -67.181,-45.295 C 56.211,-422.104 28.534,-427.692 0,-427.692 c -28.534,0 -56.211,5.588 -82.264,16.607 -25.166,10.644 -47.769,25.884 -67.18,45.295 -19.411,19.412 -34.651,42.014 -45.295,67.18 -11.02,26.053 -16.607,53.731 -16.607,82.264 0,28.534 5.587,56.211 16.607,82.264 10.644,25.166 25.884,47.769 45.295,67.18 19.411,19.411 42.014,34.651 67.18,45.296 C -56.211,-10.587 -28.534,-5 0,-5"
                   style="fill:#000000;fill-opacity:1;fill-rule:nonzero;stroke:none"
                   id="path212" /></g></g></g></g><g
           id="g220"><g
             id="g222" /><g
             id="g234"><g
               clip-path="url(#clipPath226)"
               opacity="0.300003"
               id="g232"><g
                 transform="translate(448.6665,599.1113)"
                 id="g230"><path
                   d="m 0,0 c -82.72,0 -149.778,-67.058 -149.778,-149.778 0,-82.72 67.058,-149.778 149.778,-149.778 82.72,0 149.778,67.058 149.778,149.778 C 149.778,-67.058 82.72,0 0,0 m 0,-5 c 38.671,0 75.029,-15.06 102.374,-42.405 27.344,-27.345 42.404,-63.701 42.404,-102.373 0,-38.671 -15.06,-75.029 -42.404,-102.373 C 75.029,-279.496 38.671,-294.556 0,-294.556 c -38.672,0 -75.029,15.06 -102.374,42.405 -27.345,27.344 -42.404,63.702 -42.404,102.373 0,38.672 15.059,75.028 42.404,102.373 C -75.029,-20.06 -38.672,-5 0,-5"
                   style="fill:#000000;fill-opacity:1;fill-rule:nonzero;stroke:none"
                   id="path228" /></g></g></g></g><g
           id="g236"><g
             id="g238" /><g
             id="g250"><g
               clip-path="url(#clipPath242)"
               opacity="0.100006"
               id="g248"><g
                 transform="translate(663.0117,299.5557)"
                 id="g246"><path
                   d="m 0,0 h -428.691 c -1.105,0 -2,0.896 -2,2 v 295.556 c 0,1.104 0.895,2 2,2 H 0 c 1.104,0 2,-0.896 2,-2 V 2 C 2,0.896 1.104,0 0,0 Z"
                   style="fill:none;stroke:#000000;stroke-width:5;stroke-linecap:butt;stroke-linejoin:miter;stroke-miterlimit:10;stroke-dasharray:none;stroke-opacity:1"
                   id="path244" /></g></g></g></g><g
           id="g252"><g
             id="g254" /><g
             id="g266"><g
               clip-path="url(#clipPath258)"
               opacity="0.100006"
               id="g264"><g
                 transform="translate(298.8887,234.9873)"
                 id="g262"><path
                   d="m 0,0 v 428.692 c 0,1.104 0.895,2 2,2 h 295.556 c 1.104,0 2,-0.896 2,-2 V 0 c 0,-1.104 -0.896,-2 -2,-2 H 2 C 0.895,-2 0,-1.104 0,0 Z"
                   style="fill:none;stroke:#000000;stroke-width:5;stroke-linecap:butt;stroke-linejoin:miter;stroke-miterlimit:10;stroke-dasharray:none;stroke-opacity:1"
                   id="path260" /></g></g></g></g><g
           id="g268"><g
             id="g270" /><g
             id="g282"><g
               clip-path="url(#clipPath274)"
               opacity="0.100006"
               id="g280"><g
                 transform="translate(629.7285,266.2715)"
                 id="g278"><path
                   d="m 0,0 h -362.124 c -1.1,0 -2,0.9 -2,2 v 362.124 c 0,1.1 0.9,2 2,2 H 0 c 1.1,0 2,-0.9 2,-2 V 2 C 2,0.9 1.1,0 0,0 Z"
                   style="fill:none;stroke:#000000;stroke-width:5;stroke-linecap:butt;stroke-linejoin:miter;stroke-miterlimit:10;stroke-dasharray:none;stroke-opacity:1"
                   id="path276" /></g></g></g></g><g
           id="g284"><g
             id="g286" /><g
             id="g298"><g
               clip-path="url(#clipPath290)"
               opacity="0.600006"
               id="g296"><g
                 transform="translate(448.6665,748.8892)"
                 id="g294"><path
                   d="m 0,0 c -165.44,0 -299.556,-134.116 -299.556,-299.556 0,-165.44 134.116,-299.556 299.556,-299.556 165.44,0 299.555,134.116 299.555,299.556 C 299.555,-134.116 165.44,0 0,0 m 0,-5 c 39.767,0 78.341,-7.788 114.653,-23.146 35.075,-14.835 66.576,-36.074 93.629,-63.127 27.053,-27.054 48.293,-58.555 63.128,-93.63 15.358,-36.311 23.145,-74.886 23.145,-114.653 0,-39.767 -7.787,-78.342 -23.145,-114.652 -14.835,-35.076 -36.075,-66.577 -63.128,-93.63 -27.053,-27.053 -58.554,-48.292 -93.629,-63.128 C 78.341,-586.325 39.767,-594.112 0,-594.112 c -39.767,0 -78.342,7.787 -114.653,23.146 -35.075,14.836 -66.576,36.075 -93.63,63.128 -27.052,27.053 -48.292,58.554 -63.127,93.63 -15.359,36.31 -23.146,74.885 -23.146,114.652 0,39.767 7.787,78.342 23.146,114.653 14.835,35.075 36.075,66.576 63.127,93.63 27.054,27.053 58.555,48.292 93.63,63.127 C -78.342,-12.788 -39.767,-5 0,-5"
                   style="fill:#00b28e;fill-opacity:1;fill-rule:nonzero;stroke:none"
                   id="path292" /></g></g></g></g></g></g></g></svg>
